E---------------------------
B------3---------3-------3-
G----4---4----4---4-------
D------------4----------4---
A-2----------------------
E------------------------
(two times)

Gmaj

E----------------------------
B-------3---------3------3-
G----4---4----4---4------
D------------5---------5---
A---------------------------
E-3------------------------
